http://delivery.acm.org/10.1145/2510000/2507294/p68b-dejonge.pdf?ip=132.72.71.123&id=2507294&acc=ACTIVE%20SERVICE&key=0D17F1A88EABC760%2E55A916F3EA387FF4%2E4D4702B0C3E38B35%2E4D4702B0C3E38B35&CFID=873829669&CFTOKEN=29638627&__acm__=1481273643_65c1d1047f83d361d7af1a7d2d0f3516

http://delivery.acm.org/10.1145/250000/248616/P065.pdf?ip=132.72.71.123&id=248616&acc=ACTIVE%20SERVICE&key=0D17F1A88EABC760%2E55A916F3EA387FF4%2E4D4702B0C3E38B35%2E4D4702B0C3E38B35&CFID=873829669&CFTOKEN=29638627&__acm__=1481273346_9dd9b68c548c8dcde90ce3c2347cf442

http://dl.acm.org/citation.cfm?id=2494465&CFID=873829669&CFTOKEN=29638627

http://dl.acm.org/citation.cfm?id=1500894&CFID=873829669&CFTOKEN=29638627

http://dl.acm.org/citation.cfm?id=2833054&CFID=873829669&CFTOKEN=29638627